<?xml version="1.0" encoding="UTF-8"?>
<!-- Generated by Feature Manipulation Engine 2012 SP1 (Build 12224) -->
<kml xmlns="http://www.opengis.net/kml/2.2" xmlns:atom="http://www.w3.org/2005/Atom" xmlns:gx="http://www.google.com/kml/ext/2.2">
<Document>
<name>Municipios</name>
<visibility>1</visibility>
<Folder id="kml_ft_Limites_Municipales">
<name>Limites_Municipales</name>
<Placemark id="kml_1">
<name>HUITE</name>
<Style>
<IconStyle>
<scale>0.8</scale>
<Icon>
<href>http://maps.google.com/mapfiles/kml/shapes/placemark_circle.png</href>
</Icon>
</IconStyle>
<LabelStyle>
<scale>1.0</scale>
</LabelStyle>
<LineStyle>
<color>ff0054ff</color>
<width>2</width>
</LineStyle>
<PolyStyle>
<color>3300aaff</color>
</PolyStyle>
</Style>
<Point>
<coordinates>-89.7000732421875,14.9097852706909,0 </coordinates>
</Point>
</Placemark>
<Placemark id="kml_2">
<name>HUITE</name>
<visibility>1</visibility>
<description><![CDATA[HUITE
1910]]></description>
<Style>
<IconStyle>
<scale>0.8</scale>
<Icon>
<href>images/08.png</href>
</Icon>
</IconStyle>
<LabelStyle>
<scale>1.0</scale>
</LabelStyle>
<LineStyle>
<color>ff0054ff</color>
<width>2</width>
</LineStyle>
<PolyStyle>
<color>3300aaff</color>
</PolyStyle>
</Style>
<Polygon>
<extrude>0</extrude>
<tessellate>1</tessellate>
<outerBoundaryIs>
<LinearRing>
<coordinates>-89.6506563847659,14.9227734243901,0 -89.6512498108615,14.921812751838,0 -89.6510240738215,14.9050290015025,0 -89.65136340821,14.9015108604131,0 -89.6518774142182,14.9006155981656,0 -89.6528334497564,14.8882027643533,0 -89.6525844375239,14.8795346577531,0 -89.6530322419707,14.8786384117704,0 -89.6532538486716,14.8749943923657,0 -89.6664531877752,14.8780745545112,0 -89.6690330253391,14.8756316270292,0 -89.6725644848884,14.8735895497883,0 -89.685544368466,14.8624698749341,0 -89.6941443473677,14.8562223239538,0 -89.6945276803178,14.8555067144177,0 -89.6962459319421,14.8548250002413,0 -89.6987298101841,14.8566697739867,0 -89.704761393698,14.8594604287321,0 -89.7088679581929,14.8626894315042,0 -89.7145132220973,14.8656131525623,0 -89.717788514371,14.8667829533163,0 -89.7227586960807,14.8705522895661,0 -89.7265262381138,14.8726363750383,0 -89.7276253524268,14.8726972108972,0 -89.7289901317821,14.8740698229538,0 -89.7287851424119,14.8755814253353,0 -89.7282085608014,14.8755731957454,0 -89.7252054898411,14.8783765177732,0 -89.7216404471192,14.8829232612672,0 -89.720003615402,14.8865687437237,0 -89.7195993453348,14.8889735265556,0 -89.717436503268,14.892786363362,0 -89.7174588963245,14.8992701723044,0 -89.7170443982304,14.9011195512104,0 -89.7174522620515,14.9038011722088,0 -89.7179824585257,14.9058774053298,0 -89.7194751589317,14.9083105070318,0 -89.7228551805748,14.9111126125188,0 -89.7277339161267,14.9129746019224,0 -89.7309416983846,14.9155518340236,0 -89.7326958522034,14.9163646305993,0 -89.7392446911655,14.9174365805033,0 -89.7400291078697,14.9176396216051,0 -89.7428481518706,14.9200734948807,0 -89.7430275362189,14.9212249256305,0 -89.7433099989788,14.9220054106116,0 -89.7424728860323,14.9254119098283,0 -89.7426224638668,14.9283855608148,0 -89.7444066643002,14.9319513074968,0 -89.7462605858126,14.9339741605282,0 -89.7494864803593,14.9407802355275,0 -89.7492278266115,14.9470085293953,0 -89.748164448714,14.9528280951257,0 -89.7457498724302,14.9542551565512,0 -89.7447807925046,14.9567399837506,0 -89.7433656765355,14.957588775304,0 -89.7400838088729,14.9596726174364,0 -89.7277249696002,14.9639861237745,0 -89.7228281295896,14.9631686889804,0 -89.7204785726044,14.9614138807685,0 -89.7170922000668,14.9605887167438,0 -89.7151540650808,14.9607492776627,0 -89.7111372865729,14.9632418643897,0 -89.7044758520764,14.9632777121017,0 -89.6991342257317,14.9620685382559,0 -89.6924699614471,14.9619550427733,0 -89.6895090814972,14.9625745071957,0 -89.6862410903237,14.9645944615737,0 -89.6846406221983,14.9649514974141,0 -89.682498178599,14.9661673310634,0 -89.6759774994479,14.9674299219525,0 -89.6751519875631,14.9681175538287,0 -89.6740678107721,14.9683026115567,0 -89.6728329878216,14.9661788160775,0 -89.670316822677,14.9640442049325,0 -89.6650693644655,14.9578217687392,0 -89.6629719444828,14.9545173453559,0 -89.6623029775984,14.9517292277022,0 -89.6611430612302,14.9499901895061,0 -89.6584487293252,14.943565802734,0 -89.6583564553312,14.9403053882445,0 -89.6601453220214,14.9370612195479,0 -89.660741175869,14.9344439512641,0 -89.6616351330669,14.9334504058922,0 -89.6615645238907,14.9318243598768,0 -89.6591733407617,14.9291803419087,0 -89.6565112134181,14.9278120528454,0 -89.653436958877,14.9255168539019,0 -89.6506563847659,14.9227734243901,0 </coordinates>
</LinearRing>
</outerBoundaryIs>
</Polygon>
</Placemark>
<Placemark id="kml_3">
<name>SAN PABLO LA LAGUNA</name>
<Style>
<IconStyle>
<scale>0.8</scale>
<Icon>
<href>http://maps.google.com/mapfiles/kml/shapes/placemark_circle.png</href>
</Icon>
</IconStyle>
<LabelStyle>
<scale>1.0</scale>
</LabelStyle>
<LineStyle>
<color>ff0054ff</color>
<width>2</width>
</LineStyle>
<PolyStyle>
<color>3300aaff</color>
</PolyStyle>
</Style>
<Point>
<coordinates>-91.280143737793,14.7299861907959,0 </coordinates>
</Point>
</Placemark>
<Placemark id="kml_4">
<name>SAN PABLO LA LAGUNA</name>
<visibility>1</visibility>
<description><![CDATA[SAN PABLO LA LAGUNA
715]]></description>
<Style>
<IconStyle>
<scale>0.8</scale>
<Icon>
<href>images/08.png</href>
</Icon>
</IconStyle>
<LabelStyle>
<scale>1.0</scale>
</LabelStyle>
<LineStyle>
<color>ff0054ff</color>
<width>2</width>
</LineStyle>
<PolyStyle>
<color>3300aaff</color>
</PolyStyle>
</Style>
<Polygon>
<extrude>0</extrude>
<tessellate>1</tessellate>
<outerBoundaryIs>
<LinearRing>
<coordinates>-91.2703601903347,14.716103810294,0 -91.2715400531681,14.7155895381093,0 -91.2731638582361,14.7148582824575,0 -91.2741474365555,14.7144329264105,0 -91.2747878858152,14.7141722097252,0 -91.2755626245784,14.7141779702741,0 -91.2765189440592,14.7143398637335,0 -91.2775649192491,14.714614258029,0 -91.2783182174945,14.7145419036688,0 -91.278867149919,14.7142579007371,0 -91.2803086163408,14.7135365373506,0 -91.2816059973557,14.7128332952858,0 -91.2863855662162,14.7159155985014,0 -91.2893716057781,14.7217908469958,0 -91.2893637755437,14.742949658795,0 -91.2899208494871,14.7441592097615,0 -91.2757289500961,14.7473413564149,0 -91.2734888776968,14.7414658554029,0 -91.2730452900916,14.7295506782875,0 -91.2721322623167,14.724477036431,0 -91.2710748713953,14.7212279309264,0 -91.2703601903347,14.716103810294,0 </coordinates>
</LinearRing>
</outerBoundaryIs>
</Polygon>
</Placemark>



</Folder>
</Document>

</kml>